<?xml version="1.0" encoding="UTF-8"?>
<session version="1.0">
<refactoring comment="Rename resource &apos;lab5_zagadka/headers/source&apos; to &apos;sources&apos;" description="Rename resource &apos;source&apos;" flags="7" id="org.eclipse.ltk.core.refactoring.rename.resource" input="headers/source" name="sources" stamp="1362918371857" updateReferences="true"/>
</session>